{
  "status": "success",
  "data": {
    "shops": [
      {
        "id": 1,
        "name": "METRO",
        "delivery_info": "Ближайшая доставка сегодня 21:00-23:00",
        "type": "hypermarket",
        "external_link": "https://metro.petrushka.ru/launch?shop_id=1",
        "icon_url": "https://cdn.petrushka.ru/partners/metro_logo.png",
        "highlight": "nearest",
        "metadata": {
          "partner_since": "2023-01-15",
          "rating": 4.8,
          "delivery_zones": ["Центр", "САО", "СЗАО"]
        }
      },
      {
        "id": 2,
        "name": "Ашан",
        "delivery_info": "Ближайшая доставка сегодня 18:00-20:00",
        "type": "hypermarket",
        "external_link": "https://auchan.petrushka.ru/redirect?partner_id=2",
        "icon_url": "https://cdn.petrushka.ru/partners/auchan_logo.png",
        "metadata": {
          "partner_since": "2022-11-30",
          "rating": 4.5,
          "delivery_zones": ["Все районы Москвы"]
        }
      }
    ]
  },
  "meta": {
    "count": 2,
    "total": 5,
    "page": 1,
    "has_more": true,
    "updated_at": "2024-10-28T09:41:00Z",
    "city": "Москва",
    "default_sort": "delivery_time"
  }
}
